1 10 20
100 200 125
201 210 89
900 1000 174
1 425 144
1 2 2
35 98 119
62 99 119
37 98 119
67 190 125
76 90 111
485 909 179
56 67 108
997 1087 169
1 658 145
6 99 119
54 98 119
587 798 171
436 876 179
1 453 144
76 987 179
757 1243 182
5 987 179
98 675 145
43 986 179
67 90 116
580 970 179
347 978 179
89 290 128
190 890 179
46 98 119
34 87 116
356 987 179
426 986 179
765 986 179
453 987 179
231 986 179
536 765 171
679 632 145
907 1562 182
3264 3756 238
764 985 179
563 876 179
987 1089 169
3465 9700 262
476 876 179
56 98 119
654 880 179
697 960 179
303 853 171
2603 5704 238
630 841 171
6431 8632 257
728 854 153
7564 5764 262
342 765 171
6978 7657 239
4563 8699 262
345 809 171
1000 650 179
700 876 179
3437 8564 262
2154 8900 262
655 897 179
4563 7657 262
6453 9800 260
9877 10878 255
34256 45677 324
36534 57695 340
1 679 145
7865 9570 260
798 1462 182
1431 3536 217
453 976 179
687 797 171
6453 7588 257
6476 9869 260
424 869 171
567 969 179
687 456 145
876 877 55
576 769 171
234 657 145
123 456 144
156 965 179
386 786 171
243 987 179
45636 50967 314
35678 36890 249
5678 7986 262
3767 5875 236
970 2675 209
678 786 171
564 986 179
6453 9866 260
986 1324 182
3 69 113
54 987 179
465 987 179
762 964 179
196 672 145
852 742 153
379 430 134
672 753 171
1297 7529 262
246 720 171
57684 58486 242
8966 9065 185
35645 36748 324
4325 8969 262
63078 90786 351
999998 999999 259
999887 999999 259
